[
  {
    "title": "Add",
    "cases": [
      {
        "input": {"a": 1, "b": 2},
        "program": "[.a.f, .b]"
      },
      {
        "input": {"a": 1, "b": 2},
        "program": "[.a.f?, .a]"
      }
    ]
  }
]