[
  {
    "title": "Has",
    "cases": [
      {
        "input": {"a": 1, "b": "a"},
        "program": "has(\"a\")"
      },
      {
        "input": {"a": 1, "b": "a"},
        "program": "has(\"q\")"
      },
      {
        "input": {"a": 1, "b": "a"},
        "program": "has(.b)"
      }
    ]
  }
]